…
    ## the following documents could not be embedded due lack of overlap with pre-trained embeddings provided: 
    ##  text493 text964 text3941 text8189

``` r
# group by ideology
anes2016_wv_ideology <- dem_group(x = anes2016_dem, groups = anes2016_dem@docvars$ideology)

# check nearest neighbors
nns(x = anes2016_wv_ideology, pre_trained = glove_wvs, N = 10, candidates = NULL)
```

    ## # A tibble: 30 × 4
    ##    target       feature       rank value
    ##    <fct>        <chr>        <int> <dbl>
    ##  1 Conservative entitlements     1 0.491
    ##  2 Conservative entitlement      2 0.490
    ##  3 Conservative welfare          3 0.481
    ##  4 Conservative unemployment     4 0.478
    ##  5 Conservative immigration      5 0.478
    ##  6 Conservative homelessness     6 0.473
    ##  7 Conservative ills             7 0.466
    ##  8 Conservative joblessness      8 0.464
    ##  9 Conservative insecurity       9 0.452
    ## 10 Conservative combatting      10 0.451
    ## # … with 20 more rows
